\relax 
\providecommand\zref@newlabel[2]{}
\providecommand\hyper@newdestlabel[2]{}
\providecommand*\new@tpo@label[2]{}
\providecommand\HyperFirstAtBeginDocument{\AtBeginDocument}
\HyperFirstAtBeginDocument{\ifx\hyper@anchor\@undefined
\global\let\oldcontentsline\contentsline
\gdef\contentsline#1#2#3#4{\oldcontentsline{#1}{#2}{#3}}
\global\let\oldnewlabel\newlabel
\gdef\newlabel#1#2{\newlabelxx{#1}#2}
\gdef\newlabelxx#1#2#3#4#5#6{\oldnewlabel{#1}{{#2}{#3}}}
\AtEndDocument{\ifx\hyper@anchor\@undefined
\let\contentsline\oldcontentsline
\let\newlabel\oldnewlabel
\fi}
\fi}
\global\let\hyper@last\relax 
\gdef\HyperFirstAtBeginDocument#1{#1}
\providecommand*\HyPL@Entry[1]{}
\HyPL@Entry{0<</S/r>>}
\providecommand \oddpage@label [2]{}
\providecommand\@newglossary[4]{}
\@newglossary{main}{glg}{gls}{glo}
\@newglossary{acronym}{alg}{acr}{acn}
\select@language {spanish}
\@writefile{toc}{\select@language {spanish}}
\@writefile{lof}{\select@language {spanish}}
\@writefile{lot}{\select@language {spanish}}
\oddpage@label{1}{1}
\savepicturepage{pgfid1}{1}
\pgfsyspdfmark {pgfid1}{4515791}{50865199}
\oddpage@label{2}{1}
\savepicturepage{pgfid2}{1}
\pgfsyspdfmark {pgfid2}{4515791}{49914927}
\oddpage@label{3}{1}
\savepicturepage{pgfid3}{1}
\pgfsyspdfmark {pgfid3}{4772168}{6645786}
\HyPL@Entry{6<</S/D>>}
\@writefile{toc}{\contentsline {chapter}{\numberline {1}Resumen}{3}{chapter.1}\protected@file@percent }
\@writefile{lof}{\addvspace {10\p@ }}
\@writefile{lot}{\addvspace {10\p@ }}
\@writefile{lol}{\addvspace {10\p@ }}
\@writefile{toc}{\contentsline {section}{\numberline {1.1}Introduction}{5}{section.1.1}\protected@file@percent }
\@writefile{toc}{\contentsline {section}{\numberline {1.2}The ECS Pattern}{7}{section.1.2}\protected@file@percent }
\@writefile{toc}{\contentsline {subsection}{\numberline {1.2.1}Composition vs Inheritance}{8}{subsection.1.2.1}\protected@file@percent }
\@writefile{toc}{\contentsline {subsection}{\numberline {1.2.2}What is ECS: Components}{8}{subsection.1.2.2}\protected@file@percent }
\@writefile{toc}{\contentsline {subsection}{\numberline {1.2.3}What is ECS: Entities}{8}{subsection.1.2.3}\protected@file@percent }
\@writefile{toc}{\contentsline {subsection}{\numberline {1.2.4}What is ECS: Systems}{8}{subsection.1.2.4}\protected@file@percent }
\@writefile{toc}{\contentsline {subsection}{\numberline {1.2.5}What is ECS: beyond entities, components and systems}{9}{subsection.1.2.5}\protected@file@percent }
\@writefile{toc}{\contentsline {section}{\numberline {1.3}An example program}{9}{section.1.3}\protected@file@percent }
\@writefile{toc}{\contentsline {section}{\numberline {1.4}Goals}{11}{section.1.4}\protected@file@percent }
\@writefile{toc}{\contentsline {subsection}{\numberline {1.4.1}Language specification}{11}{subsection.1.4.1}\protected@file@percent }
\@writefile{toc}{\contentsline {subsection}{\numberline {1.4.2}Prototype implementation}{11}{subsection.1.4.2}\protected@file@percent }
\@writefile{toc}{\contentsline {subsection}{\numberline {1.4.3}Prototype evaluation}{11}{subsection.1.4.3}\protected@file@percent }
\@writefile{toc}{\contentsline {chapter}{\numberline {2}Introducción}{13}{chapter.2}\protected@file@percent }
\@writefile{lof}{\addvspace {10\p@ }}
\@writefile{lot}{\addvspace {10\p@ }}
\@writefile{lol}{\addvspace {10\p@ }}
\@writefile{toc}{\contentsline {section}{\numberline {2.1}Contexto}{13}{section.2.1}\protected@file@percent }
\@writefile{toc}{\contentsline {section}{\numberline {2.2}Introducción a ECS: mundo de ejemplo}{15}{section.2.2}\protected@file@percent }
\newlabel{ecsIntro}{{2.2}{15}{Introducción a ECS: mundo de ejemplo}{section.2.2}{}}
\@writefile{lof}{\contentsline {figure}{\numberline {\relax 2.1}{\ignorespaces Diagrama UML de herencia para clases de animales\relax }}{16}{figure.2.1}\protected@file@percent }
\newlabel{ecs-01}{{\relax 2.1}{16}{Diagrama UML de herencia para clases de animales\relax }{figure.2.1}{}}
\@writefile{lof}{\contentsline {figure}{\numberline {\relax 2.2}{\ignorespaces Clases de robots\relax }}{16}{figure.2.2}\protected@file@percent }
\newlabel{ecs-02}{{\relax 2.2}{16}{Clases de robots\relax }{figure.2.2}{}}
\@writefile{toc}{\contentsline {subsection}{\numberline {2.2.1}Composición frente a herencia}{16}{subsection.2.2.1}\protected@file@percent }
\@writefile{lof}{\contentsline {figure}{\numberline {\relax 2.3}{\ignorespaces Composición de comportamientos\relax }}{17}{figure.2.3}\protected@file@percent }
\newlabel{ecs-03}{{\relax 2.3}{17}{Composición de comportamientos\relax }{figure.2.3}{}}
\@writefile{toc}{\contentsline {subsection}{\numberline {2.2.2}Qué es ECS: Componentes}{17}{subsection.2.2.2}\protected@file@percent }
\@writefile{toc}{\contentsline {subsection}{\numberline {2.2.3}Qué es ECS: Entidades}{17}{subsection.2.2.3}\protected@file@percent }
\@writefile{toc}{\contentsline {subsection}{\numberline {2.2.4}Qué es ECS: Sistemas}{18}{subsection.2.2.4}\protected@file@percent }
\@writefile{toc}{\contentsline {subsection}{\numberline {2.2.5}Qué es ECS: más allá de entidades, componentes y sistemas}{18}{subsection.2.2.5}\protected@file@percent }
\@writefile{toc}{\contentsline {section}{\numberline {2.3}¿Qué entendemos por lenguaje de scripting en el contexto de los videojuegos?}{18}{section.2.3}\protected@file@percent }
\@writefile{toc}{\contentsline {section}{\numberline {2.4}Arquitectura básica de un videojuego}{19}{section.2.4}\protected@file@percent }
\@writefile{lof}{\contentsline {figure}{\numberline {\relax 2.4}{\ignorespaces Arquitectura básica\relax }}{19}{figure.2.4}\protected@file@percent }
\newlabel{arquitectura-1}{{\relax 2.4}{19}{Arquitectura básica\relax }{figure.2.4}{}}
\@writefile{lof}{\contentsline {figure}{\numberline {\relax 2.5}{\ignorespaces Arquitectura básica: detalle de actualización del mundo\relax }}{20}{figure.2.5}\protected@file@percent }
\newlabel{arquitectura-2}{{\relax 2.5}{20}{Arquitectura básica: detalle de actualización del mundo\relax }{figure.2.5}{}}
\@writefile{lof}{\contentsline {figure}{\numberline {\relax 2.6}{\ignorespaces Arquitectura básica: rol del intérprete\relax }}{20}{figure.2.6}\protected@file@percent }
\newlabel{arquitectura-3}{{\relax 2.6}{20}{Arquitectura básica: rol del intérprete\relax }{figure.2.6}{}}
\citation{LUAGames}
\citation{LUAApps}
\@writefile{toc}{\contentsline {chapter}{\numberline {3}Estado del arte}{21}{chapter.3}\protected@file@percent }
\@writefile{lof}{\addvspace {10\p@ }}
\@writefile{lot}{\addvspace {10\p@ }}
\@writefile{lol}{\addvspace {10\p@ }}
\@writefile{toc}{\contentsline {section}{\numberline {3.1}LUA}{21}{section.3.1}\protected@file@percent }
\@writefile{toc}{\contentsline {subsection}{\numberline {3.1.1}Ventajas}{21}{subsection.3.1.1}\protected@file@percent }
\citation{SlantPopularScriptingLanguages}
\citation{Squirrel}
\citation{Moonscript}
\citation{Haxe}
\@writefile{toc}{\contentsline {subsection}{\numberline {3.1.2}Inconvenientes}{22}{subsection.3.1.2}\protected@file@percent }
\@writefile{toc}{\contentsline {section}{\numberline {3.2}Otros lenguajes de script}{22}{section.3.2}\protected@file@percent }
\@writefile{toc}{\contentsline {subsection}{\numberline {3.2.1}Squirrel}{22}{subsection.3.2.1}\protected@file@percent }
\@writefile{toc}{\contentsline {subsection}{\numberline {3.2.2}Moonscript}{22}{subsection.3.2.2}\protected@file@percent }
\citation{GodotIntro}
\citation{GodotStandalone}
\citation{GameMakerLanguage}
\citation{GameMakerLanguageExternal}
\@writefile{toc}{\contentsline {subsection}{\numberline {3.2.3}Haxe}{23}{subsection.3.2.3}\protected@file@percent }
\@writefile{toc}{\contentsline {section}{\numberline {3.3}Entornos de desarrollo con lenguajes propios}{23}{section.3.3}\protected@file@percent }
\@writefile{toc}{\contentsline {subsection}{\numberline {3.3.1}Unreal Engine 4: blueprints}{23}{subsection.3.3.1}\protected@file@percent }
\@writefile{toc}{\contentsline {subsection}{\numberline {3.3.2}Godot Engine: GDScript}{23}{subsection.3.3.2}\protected@file@percent }
\citation{UnityScripting}
\citation{ECSUnity}
\citation{IEModding}
\citation{SCUMMVM}
\@writefile{toc}{\contentsline {subsection}{\numberline {3.3.3}GameMaker: GML}{24}{subsection.3.3.3}\protected@file@percent }
\@writefile{toc}{\contentsline {subsection}{\numberline {3.3.4}Unity: C\# y javascript}{24}{subsection.3.3.4}\protected@file@percent }
\@writefile{toc}{\contentsline {subsection}{\numberline {3.3.5}Entornos de desarrollo con lenguajes propios: Conclusiones}{24}{subsection.3.3.5}\protected@file@percent }
\@writefile{toc}{\contentsline {section}{\numberline {3.4}Otras soluciones específicas}{24}{section.3.4}\protected@file@percent }
\citation{ECSWikipedia}
\@writefile{toc}{\contentsline {chapter}{\numberline {4}Análisis de objetivos y metodología}{25}{chapter.4}\protected@file@percent }
\@writefile{lof}{\addvspace {10\p@ }}
\@writefile{lot}{\addvspace {10\p@ }}
\@writefile{lol}{\addvspace {10\p@ }}
\@writefile{toc}{\contentsline {section}{\numberline {4.1}Análisis de objetivos}{25}{section.4.1}\protected@file@percent }
\@writefile{toc}{\contentsline {section}{\numberline {4.2}Metodología}{25}{section.4.2}\protected@file@percent }
\@writefile{toc}{\contentsline {subsection}{\numberline {4.2.1}Especificación del lenguaje}{26}{subsection.4.2.1}\protected@file@percent }
\@writefile{toc}{\contentsline {subsection}{\numberline {4.2.2}Implementación del prototipo}{26}{subsection.4.2.2}\protected@file@percent }
\@writefile{toc}{\contentsline {subsection}{\numberline {4.2.3}Evaluación del prototipo}{26}{subsection.4.2.3}\protected@file@percent }
\@writefile{toc}{\contentsline {chapter}{\numberline {5}Diseño y resolución del trabajo realizado}{27}{chapter.5}\protected@file@percent }
\@writefile{lof}{\addvspace {10\p@ }}
\@writefile{lot}{\addvspace {10\p@ }}
\@writefile{lol}{\addvspace {10\p@ }}
\@writefile{toc}{\contentsline {section}{\numberline {5.1}Visión de alto nivel del lenguaje}{27}{section.5.1}\protected@file@percent }
\@writefile{toc}{\contentsline {subsection}{\numberline {5.1.1}Descripción general}{27}{subsection.5.1.1}\protected@file@percent }
\@writefile{toc}{\contentsline {subsection}{\numberline {5.1.2}Ejemplo de programa}{27}{subsection.5.1.2}\protected@file@percent }
\@writefile{toc}{\contentsline {subsection}{\numberline {5.1.3}Construcciones facilitadas por el lenguaje}{28}{subsection.5.1.3}\protected@file@percent }
\@writefile{toc}{\contentsline {subsubsection}{\nonumberline Componentes}{28}{section*.4}\protected@file@percent }
\@writefile{toc}{\contentsline {subsubsection}{\nonumberline Entidades}{28}{section*.5}\protected@file@percent }
\@writefile{toc}{\contentsline {subsubsection}{\nonumberline Sistemas}{28}{section*.6}\protected@file@percent }
\@writefile{toc}{\contentsline {subsubsection}{\nonumberline Funciones}{29}{section*.7}\protected@file@percent }
\@writefile{toc}{\contentsline {subsection}{\numberline {5.1.4}Flujo de ejecución de un programa}{29}{subsection.5.1.4}\protected@file@percent }
\@writefile{toc}{\contentsline {section}{\numberline {5.2}Especificación del lenguaje}{29}{section.5.2}\protected@file@percent }
\@writefile{toc}{\contentsline {subsection}{\numberline {5.2.1}Identificadores}{29}{subsection.5.2.1}\protected@file@percent }
\@writefile{toc}{\contentsline {subsection}{\numberline {5.2.2}Palabras clave}{30}{subsection.5.2.2}\protected@file@percent }
\@writefile{toc}{\contentsline {subsection}{\numberline {5.2.3}Tipos de datos}{30}{subsection.5.2.3}\protected@file@percent }
\@writefile{toc}{\contentsline {subsection}{\numberline {5.2.4}Componentes}{30}{subsection.5.2.4}\protected@file@percent }
\@writefile{toc}{\contentsline {subsection}{\numberline {5.2.5}Entidades}{30}{subsection.5.2.5}\protected@file@percent }
\@writefile{toc}{\contentsline {subsection}{\numberline {5.2.6}Sistemas}{30}{subsection.5.2.6}\protected@file@percent }
\@writefile{toc}{\contentsline {subsection}{\numberline {5.2.7}Funciones}{31}{subsection.5.2.7}\protected@file@percent }
\@writefile{toc}{\contentsline {subsection}{\numberline {5.2.8}Literales}{31}{subsection.5.2.8}\protected@file@percent }
\@writefile{toc}{\contentsline {subsection}{\numberline {5.2.9}Variables}{31}{subsection.5.2.9}\protected@file@percent }
\@writefile{toc}{\contentsline {subsubsection}{\nonumberline Definición e inicialización}{32}{section*.8}\protected@file@percent }
\@writefile{toc}{\contentsline {subsubsection}{\nonumberline Acceso y alcance}{32}{section*.9}\protected@file@percent }
\@writefile{toc}{\contentsline {subsection}{\numberline {5.2.10}Operadores}{33}{subsection.5.2.10}\protected@file@percent }
\@writefile{toc}{\contentsline {subsubsection}{\nonumberline Operadores aritméticos}{33}{section*.10}\protected@file@percent }
\@writefile{toc}{\contentsline {subsubsection}{\nonumberline Comparadores}{33}{section*.11}\protected@file@percent }
\@writefile{toc}{\contentsline {subsubsection}{\nonumberline Operadores unarios}{33}{section*.12}\protected@file@percent }
\@writefile{toc}{\contentsline {subsection}{\numberline {5.2.11}Estructuras de control}{33}{subsection.5.2.11}\protected@file@percent }
\@writefile{toc}{\contentsline {subsubsection}{\nonumberline if/else}{33}{section*.13}\protected@file@percent }
\@writefile{toc}{\contentsline {subsubsection}{\nonumberline while}{34}{section*.14}\protected@file@percent }
\@writefile{toc}{\contentsline {subsection}{\numberline {5.2.12}Elementos predefinidos en el lenguaje}{34}{subsection.5.2.12}\protected@file@percent }
\@writefile{toc}{\contentsline {subsubsection}{\nonumberline Componente Sprite}{34}{section*.15}\protected@file@percent }
\@writefile{toc}{\contentsline {subsubsection}{\nonumberline Sistema de dibujo}{34}{section*.16}\protected@file@percent }
\@writefile{toc}{\contentsline {subsubsection}{\nonumberline Sistema de manejo de ratón}{34}{section*.17}\protected@file@percent }
\@writefile{toc}{\contentsline {subsubsection}{\nonumberline Funciones predefinidas: funciones matemáticas}{34}{section*.18}\protected@file@percent }
\@writefile{toc}{\contentsline {subsubsection}{\nonumberline Funciones predefinidas: funciones de sistema}{35}{section*.19}\protected@file@percent }
\@writefile{toc}{\contentsline {subsection}{\numberline {5.2.13}Especificación formal}{35}{subsection.5.2.13}\protected@file@percent }
\@writefile{toc}{\contentsline {section}{\numberline {5.3}Implementación y herramientas}{38}{section.5.3}\protected@file@percent }
\@writefile{toc}{\contentsline {subsection}{\numberline {5.3.1}C++, Flex y Bison}{38}{subsection.5.3.1}\protected@file@percent }
\@writefile{toc}{\contentsline {subsubsection}{\nonumberline Estructuras de datos del intérprete}{38}{section*.20}\protected@file@percent }
\@writefile{toc}{\contentsline {subsubsection}{\nonumberline Árboles de Sintaxis Abstracta}{39}{section*.21}\protected@file@percent }
\@writefile{lof}{\contentsline {figure}{\numberline {\relax 5.1}{\ignorespaces Ejemplo de árbol de sintaxis para una operación sencilla\relax }}{41}{figure.5.1}\protected@file@percent }
\newlabel{ast-01}{{\relax 5.1}{41}{Ejemplo de árbol de sintaxis para una operación sencilla\relax }{figure.5.1}{}}
\@writefile{toc}{\contentsline {subsection}{\numberline {5.3.2}SFML}{41}{subsection.5.3.2}\protected@file@percent }
\@writefile{toc}{\contentsline {subsection}{\numberline {5.3.3}Prototipo desarrollado: repositorio de código}{41}{subsection.5.3.3}\protected@file@percent }
\@writefile{toc}{\contentsline {chapter}{\numberline {6}Conclusiones y vías futuras}{43}{chapter.6}\protected@file@percent }
\@writefile{lof}{\addvspace {10\p@ }}
\@writefile{lot}{\addvspace {10\p@ }}
\@writefile{lol}{\addvspace {10\p@ }}
\@writefile{toc}{\contentsline {section}{\numberline {6.1}Conclusiones}{43}{section.6.1}\protected@file@percent }
\@writefile{toc}{\contentsline {subsection}{\numberline {6.1.1}Implementación sencilla de ECS}{43}{subsection.6.1.1}\protected@file@percent }
\@writefile{toc}{\contentsline {subsection}{\numberline {6.1.2}Subsistema gráfico sencillo}{43}{subsection.6.1.2}\protected@file@percent }
\@writefile{toc}{\contentsline {subsection}{\numberline {6.1.3}Un lenguaje lo suficientemente potente pese a su simplicidad}{43}{subsection.6.1.3}\protected@file@percent }
\@writefile{toc}{\contentsline {subsection}{\numberline {6.1.4}Potencial de mejora}{44}{subsection.6.1.4}\protected@file@percent }
\@writefile{toc}{\contentsline {section}{\numberline {6.2}Vías futuras}{44}{section.6.2}\protected@file@percent }
\@writefile{toc}{\contentsline {subsection}{\numberline {6.2.1}Funcionalidad adicional proporcionada por el lenguaje}{44}{subsection.6.2.1}\protected@file@percent }
\@writefile{toc}{\contentsline {subsection}{\numberline {6.2.2}Subsistema de sonido}{44}{subsection.6.2.2}\protected@file@percent }
\@writefile{toc}{\contentsline {subsection}{\numberline {6.2.3}Subsistema de entrada/salida}{44}{subsection.6.2.3}\protected@file@percent }
\citation{*}
\bibstyle{unsrtnat}
\bibdata{bibliografia/bibliografia}
\@writefile{toc}{\contentsline {subsection}{\numberline {6.2.4}Herramientas de generación de código}{45}{subsection.6.2.4}\protected@file@percent }
\@writefile{toc}{\contentsline {subsection}{\numberline {6.2.5}Integrar otros frameworks y librerías gráficas}{45}{subsection.6.2.5}\protected@file@percent }
\bibcite{LUAGames}{{1}{}{{LUA}}{{}}}
\bibcite{LUAApps}{{2}{}{{LUA}}{{}}}
\bibcite{SlantPopularScriptingLanguages}{{3}{}{{Sla}}{{}}}
\bibcite{Squirrel}{{4}{}{{Squ}}{{}}}
\bibcite{Moonscript}{{5}{}{{Moo}}{{}}}
\bibcite{Haxe}{{6}{}{{Hax}}{{}}}
\bibcite{GodotIntro}{{7}{}{{God}}{{}}}
\bibcite{GodotStandalone}{{8}{}{{God}}{{}}}
\bibcite{GameMakerLanguage}{{9}{}{{Gam}}{{}}}
\bibcite{GameMakerLanguageExternal}{{10}{}{{Gam}}{{}}}
\bibcite{UnityScripting}{{11}{}{{Uni}}{{}}}
\bibcite{ECSUnity}{{12}{}{{ECS}}{{}}}
\bibcite{IEModding}{{13}{}{{IEM}}{{}}}
\@writefile{toc}{\contentsline {chapter}{\nonumberline Bibliografía}{47}{chapter*.22}\protected@file@percent }
\@writefile{lof}{\addvspace {10\p@ }}
\@writefile{lot}{\addvspace {10\p@ }}
\@writefile{lol}{\addvspace {10\p@ }}
\bibcite{SCUMMVM}{{14}{}{{SCU}}{{}}}
\bibcite{ECSWikipedia}{{15}{}{{ECS}}{{}}}
\@writefile{toc}{\contentsline {chapter}{\numberline {A}Anexo I - Ejemplos prácticos del lenguaje}{49}{appendix.A}\protected@file@percent }
\@writefile{lof}{\addvspace {10\p@ }}
\@writefile{lot}{\addvspace {10\p@ }}
\@writefile{lol}{\addvspace {10\p@ }}
\@writefile{toc}{\contentsline {section}{\numberline {A.1}Tutorial 01 - Mostrando una imagen en pantalla}{49}{section.A.1}\protected@file@percent }
\@writefile{lof}{\contentsline {figure}{\numberline {\relax A.1}{\ignorespaces Tutorial 1: mostrando una imagen en pantalla\relax }}{50}{figure.A.1}\protected@file@percent }
\newlabel{tutorial-01}{{\relax A.1}{50}{Tutorial 1: mostrando una imagen en pantalla\relax }{figure.A.1}{}}
\@writefile{toc}{\contentsline {section}{\numberline {A.2}Tutorial 02 - Definiendo sistemas y componentes propios}{51}{section.A.2}\protected@file@percent }
\@writefile{lof}{\contentsline {figure}{\numberline {\relax A.2}{\ignorespaces Tutorial 2: entidades en movimiento\relax }}{56}{figure.A.2}\protected@file@percent }
\newlabel{tutorial-02}{{\relax A.2}{56}{Tutorial 2: entidades en movimiento\relax }{figure.A.2}{}}
\@writefile{toc}{\contentsline {section}{\numberline {A.3}Tutorial 03 - Uso del sistema predefinido "mouse"}{56}{section.A.3}\protected@file@percent }
\@writefile{lof}{\contentsline {figure}{\numberline {\relax A.3}{\ignorespaces Tutorial 3: Control con ratón\relax }}{59}{figure.A.3}\protected@file@percent }
\newlabel{tutorial-03}{{\relax A.3}{59}{Tutorial 3: Control con ratón\relax }{figure.A.3}{}}
\global\csname @altsecnumformattrue\endcsname
\global\@namedef{scr@dte@chapter@lastmaxnumwidth}{17.26793pt}
\global\@namedef{scr@dte@section@lastmaxnumwidth}{26.01593pt}
\global\@namedef{scr@dte@subsection@lastmaxnumwidth}{38.11192pt}
